[
  {
    "_entityName": "sec$Role",
    "id": "685cc4e4-b55d-d012-a60c-a8d63ce73091",
    "defaultRole": false,
    "locName": "Reconciliation-Role",
    "type": "STANDARD",
    "version": 2,
    "permissions": [
      {
        "_entityName": "sec$Permission",
        "id": "3ac65d31-33b4-efd1-4cb6-33723e13ff05",
        "role": {
          "_entityName": "sec$Role",
          "id": "685cc4e4-b55d-d012-a60c-a8d63ce73091"
        },
        "type": "ENTITY_OP",
        "version": 1,
        "value": 1,
        "target": "*:read"
      },
      {
        "_entityName": "sec$Permission",
        "id": "a0704757-4bef-956d-03ac-c9cfb5f8243a",
        "role": {
          "_entityName": "sec$Role",
          "id": "685cc4e4-b55d-d012-a60c-a8d63ce73091"
        },
        "type": "ENTITY_OP",
        "version": 1,
        "value": 1,
        "target": "*:delete"
      },
      {
        "_entityName": "sec$Permission",
        "id": "30949379-fb39-8034-616b-f726fd14b1fd",
        "role": {
          "_entityName": "sec$Role",
          "id": "685cc4e4-b55d-d012-a60c-a8d63ce73091"
        },
        "type": "SCREEN",
        "version": 1,
        "value": 0,
        "target": "treasury_ClosedCrossAccount.browse"
      },
      {
        "_entityName": "sec$Permission",
        "id": "9bda7d39-a66c-6855-6441-f0fba6b304b6",
        "role": {
          "_entityName": "sec$Role",
          "id": "685cc4e4-b55d-d012-a60c-a8d63ce73091"
        },
        "type": "UI",
        "version": 1,
        "value": 0,
        "target": "treasury_Balance.edit:BalanceSheet[checkerTap]"
      },
      {
        "_entityName": "sec$Permission",
        "id": "eb37a06a-13d7-b3b3-6d16-853e1af43e40",
        "role": {
          "_entityName": "sec$Role",
          "id": "685cc4e4-b55d-d012-a60c-a8d63ce73091"
        },
        "type": "ENTITY_ATTR",
        "version": 1,
        "value": 2,
        "target": "*:*"
      },
      {
        "_entityName": "sec$Permission",
        "id": "ecff4e2d-4a14-85a7-b5be-ecc98c371266",
        "role": {
          "_entityName": "sec$Role",
          "id": "685cc4e4-b55d-d012-a60c-a8d63ce73091"
        },
        "type": "UI",
        "version": 1,
        "value": 0,
        "target": "treasury_Balance.browse:VALIDATEDbtn"
      },
      {
        "_entityName": "sec$Permission",
        "id": "a1aa000e-29f6-91ba-3df0-96d921a2ccce",
        "role": {
          "_entityName": "sec$Role",
          "id": "685cc4e4-b55d-d012-a60c-a8d63ce73091"
        },
        "type": "SCREEN",
        "version": 1,
        "value": 0,
        "target": "help"
      },
      {
        "_entityName": "sec$Permission",
        "id": "91a1bb4c-1c3e-722c-013c-1f064cb91671",
        "role": {
          "_entityName": "sec$Role",
          "id": "685cc4e4-b55d-d012-a60c-a8d63ce73091"
        },
        "type": "UI",
        "version": 1,
        "value": 0,
        "target": "treasury_Balance.browse:RETURNEDValidatebtn"
      },
      {
        "_entityName": "sec$Permission",
        "id": "b9b87c65-f69d-d751-e7ad-c26f3d71a192",
        "role": {
          "_entityName": "sec$Role",
          "id": "685cc4e4-b55d-d012-a60c-a8d63ce73091"
        },
        "type": "SCREEN",
        "version": 1,
        "value": 0,
        "target": "treasury_Transaction.browse"
      },
      {
        "_entityName": "sec$Permission",
        "id": "6f918dbc-3937-1044-ce48-466f90b0edd9",
        "role": {
          "_entityName": "sec$Role",
          "id": "685cc4e4-b55d-d012-a60c-a8d63ce73091"
        },
        "type": "ENTITY_OP",
        "version": 1,
        "value": 1,
        "target": "*:update"
      },
      {
        "_entityName": "sec$Permission",
        "id": "d6e2cfec-2f07-1fc9-4e6a-654ddf8aebf9",
        "role": {
          "_entityName": "sec$Role",
          "id": "685cc4e4-b55d-d012-a60c-a8d63ce73091"
        },
        "type": "SCREEN",
        "version": 1,
        "value": 0,
        "target": "administration"
      },
      {
        "_entityName": "sec$Permission",
        "id": "a2cf3f79-a61d-6ea0-2cbf-4f4823589371",
        "role": {
          "_entityName": "sec$Role",
          "id": "685cc4e4-b55d-d012-a60c-a8d63ce73091"
        },
        "type": "SCREEN",
        "version": 1,
        "value": 0,
        "target": "treasury_TreasuryCtrl.browse"
      },
      {
        "_entityName": "sec$Permission",
        "id": "a90dc48d-befa-fd9b-ec91-ce2d164e8ac5",
        "role": {
          "_entityName": "sec$Role",
          "id": "685cc4e4-b55d-d012-a60c-a8d63ce73091"
        },
        "type": "SCREEN",
        "version": 1,
        "value": 0,
        "target": "treasury_CrossAccountHolidays.browse"
      },
      {
        "_entityName": "sec$Permission",
        "id": "fc4d6d6d-8b20-6258-98d6-e2615baaf0d3",
        "role": {
          "_entityName": "sec$Role",
          "id": "685cc4e4-b55d-d012-a60c-a8d63ce73091"
        },
        "type": "SCREEN",
        "version": 1,
        "value": 0,
        "target": "treasury_Remittance"
      },
      {
        "_entityName": "sec$Permission",
        "id": "f4177ea4-1d61-0871-94b2-b9fd635b1360",
        "role": {
          "_entityName": "sec$Role",
          "id": "685cc4e4-b55d-d012-a60c-a8d63ce73091"
        },
        "type": "UI",
        "version": 1,
        "value": 0,
        "target": "treasury_Transaction.edit:transactionSheet[checkerTap]"
      },
      {
        "_entityName": "sec$Permission",
        "id": "ded893c0-9c9f-93d2-bd3e-d14770b1090a",
        "role": {
          "_entityName": "sec$Role",
          "id": "685cc4e4-b55d-d012-a60c-a8d63ce73091"
        },
        "type": "SPECIFIC",
        "version": 1,
        "value": 1,
        "target": "*"
      },
      {
        "_entityName": "sec$Permission",
        "id": "7717ed00-c77d-94f4-02d0-b6d7a88a4b2b",
        "role": {
          "_entityName": "sec$Role",
          "id": "685cc4e4-b55d-d012-a60c-a8d63ce73091"
        },
        "type": "ENTITY_OP",
        "version": 1,
        "value": 1,
        "target": "*:create"
      },
      {
        "_entityName": "sec$Permission",
        "id": "df196a92-9221-f96e-331b-f62baf4bc2e6",
        "role": {
          "_entityName": "sec$Role",
          "id": "685cc4e4-b55d-d012-a60c-a8d63ce73091"
        },
        "type": "SCREEN",
        "version": 1,
        "value": 1,
        "target": "*"
      },
      {
        "_entityName": "sec$Permission",
        "id": "f7acd242-7d71-9897-6b27-688ddde2f03d",
        "role": {
          "_entityName": "sec$Role",
          "id": "685cc4e4-b55d-d012-a60c-a8d63ce73091"
        },
        "type": "SCREEN",
        "version": 1,
        "value": 0,
        "target": "treasury_Currency.browse"
      },
      {
        "_entityName": "sec$Permission",
        "id": "b3f40483-bd09-9183-3391-cfea8f881950",
        "role": {
          "_entityName": "sec$Role",
          "id": "685cc4e4-b55d-d012-a60c-a8d63ce73091"
        },
        "type": "UI",
        "version": 1,
        "value": 0,
        "target": "treasury_Balance.browse:RETURNEDbtn"
      },
      {
        "_entityName": "sec$Permission",
        "id": "b874834b-b17d-e8ed-b919-8d0d67b5d830",
        "role": {
          "_entityName": "sec$Role",
          "id": "685cc4e4-b55d-d012-a60c-a8d63ce73091"
        },
        "type": "SCREEN",
        "version": 1,
        "value": 0,
        "target": "treasury_CrossAccount.browse"
      },
      {
        "_entityName": "sec$Permission",
        "id": "0454781e-4a60-f241-d898-9312782514fb",
        "role": {
          "_entityName": "sec$Role",
          "id": "685cc4e4-b55d-d012-a60c-a8d63ce73091"
        },
        "type": "SCREEN",
        "version": 1,
        "value": 0,
        "target": "treasury_TransactionsTransfered.browse"
      },
      {
        "_entityName": "sec$Permission",
        "id": "73b87df9-8db9-3e47-9916-a1294b227f3d",
        "role": {
          "_entityName": "sec$Role",
          "id": "685cc4e4-b55d-d012-a60c-a8d63ce73091"
        },
        "type": "SCREEN",
        "version": 1,
        "value": 0,
        "target": "treasury_TreasuryFrontOffice.browse"
      }
    ],
    "name": "Reconciliation-Role-Maker"
  },
  {
    "_entityName": "sec$Role",
    "id": "a3a4323b-e0cf-d73e-9488-ba421af28341",
    "securityScope": "GENERIC_UI",
    "defaultRole": false,
    "locName": "MAKER",
    "type": "STANDARD",
    "version": 2,
    "locSecurityScope": "Generic UI",
    "permissions": [
      {
        "_entityName": "sec$Permission",
        "id": "87c2814c-592e-83e1-3a5d-8e777a32479a",
        "role": {
          "_entityName": "sec$Role",
          "id": "a3a4323b-e0cf-d73e-9488-ba421af28341"
        },
        "type": "SCREEN",
        "version": 1,
        "value": 0,
        "target": "treasury_TransactionsTransfered.browse"
      },
      {
        "_entityName": "sec$Permission",
        "id": "d1ab98a3-852f-16f2-7782-1eefeb36db4a",
        "role": {
          "_entityName": "sec$Role",
          "id": "a3a4323b-e0cf-d73e-9488-ba421af28341"
        },
        "type": "SCREEN",
        "version": 1,
        "value": 1,
        "target": "*"
      },
      {
        "_entityName": "sec$Permission",
        "id": "825f850c-d9a5-937b-111e-717cabb2aa58",
        "role": {
          "_entityName": "sec$Role",
          "id": "a3a4323b-e0cf-d73e-9488-ba421af28341"
        },
        "type": "SPECIFIC",
        "version": 1,
        "value": 1,
        "target": "*"
      },
      {
        "_entityName": "sec$Permission",
        "id": "48fc0b6a-997d-77aa-be69-bee68fd594de",
        "role": {
          "_entityName": "sec$Role",
          "id": "a3a4323b-e0cf-d73e-9488-ba421af28341"
        },
        "type": "UI",
        "version": 1,
        "value": 0,
        "target": "treasury_Transaction.browse:VALIDATEDbtn"
      },
      {
        "_entityName": "sec$Permission",
        "id": "995fe35a-dac8-8e38-4991-75582394f8e0",
        "role": {
          "_entityName": "sec$Role",
          "id": "a3a4323b-e0cf-d73e-9488-ba421af28341"
        },
        "type": "SCREEN",
        "version": 1,
        "value": 0,
        "target": "treasury_Balance.browse"
      },
      {
        "_entityName": "sec$Permission",
        "id": "3c077e52-f363-566e-c3b8-0ac6a02ece41",
        "role": {
          "_entityName": "sec$Role",
          "id": "a3a4323b-e0cf-d73e-9488-ba421af28341"
        },
        "type": "ENTITY_ATTR",
        "version": 1,
        "value": 2,
        "target": "*:*"
      },
      {
        "_entityName": "sec$Permission",
        "id": "a2b29711-e67b-4c9c-af4f-e4e59784b2a3",
        "role": {
          "_entityName": "sec$Role",
          "id": "a3a4323b-e0cf-d73e-9488-ba421af28341"
        },
        "type": "SCREEN",
        "version": 1,
        "value": 0,
        "target": "help"
      },
      {
        "_entityName": "sec$Permission",
        "id": "08be6db2-6169-bd40-8d5a-67256a7903a9",
        "role": {
          "_entityName": "sec$Role",
          "id": "a3a4323b-e0cf-d73e-9488-ba421af28341"
        },
        "type": "SCREEN",
        "version": 1,
        "value": 0,
        "target": "treasury_ClosedCrossAccount.browse"
      },
      {
        "_entityName": "sec$Permission",
        "id": "60cad2ec-eca0-425e-9b8a-50689405c8b1",
        "role": {
          "_entityName": "sec$Role",
          "id": "a3a4323b-e0cf-d73e-9488-ba421af28341"
        },
        "type": "UI",
        "version": 1,
        "value": 0,
        "target": "treasury_Transaction.browse:RETURNEDbtn"
      },
      {
        "_entityName": "sec$Permission",
        "id": "1b62c3e3-6ecd-c974-590e-ba3f934b5c0c",
        "role": {
          "_entityName": "sec$Role",
          "id": "a3a4323b-e0cf-d73e-9488-ba421af28341"
        },
        "type": "SCREEN",
        "version": 1,
        "value": 0,
        "target": "treasury_TreasuryFrontOffice.browse"
      },
      {
        "_entityName": "sec$Permission",
        "id": "a5adde45-65d3-c6bd-75a7-a5e371ebfea6",
        "role": {
          "_entityName": "sec$Role",
          "id": "a3a4323b-e0cf-d73e-9488-ba421af28341"
        },
        "type": "SCREEN",
        "version": 1,
        "value": 0,
        "target": "treasury_TreasuryCtrl.browse"
      },
      {
        "_entityName": "sec$Permission",
        "id": "f61e0439-5b1b-1d8d-c641-ea5dec83287c",
        "role": {
          "_entityName": "sec$Role",
          "id": "a3a4323b-e0cf-d73e-9488-ba421af28341"
        },
        "type": "SCREEN",
        "version": 1,
        "value": 0,
        "target": "treasury_Currency.browse"
      },
      {
        "_entityName": "sec$Permission",
        "id": "4453dd15-5417-a577-690a-3a9916843b24",
        "role": {
          "_entityName": "sec$Role",
          "id": "a3a4323b-e0cf-d73e-9488-ba421af28341"
        },
        "type": "UI",
        "version": 1,
        "value": 0,
        "target": "treasury_Transaction.edit:makerDiscription"
      },
      {
        "_entityName": "sec$Permission",
        "id": "eb65b296-413b-5833-a3c1-6d2e4497fe59",
        "role": {
          "_entityName": "sec$Role",
          "id": "a3a4323b-e0cf-d73e-9488-ba421af28341"
        },
        "type": "ENTITY_OP",
        "version": 1,
        "value": 1,
        "target": "*:update"
      },
      {
        "_entityName": "sec$Permission",
        "id": "222f5334-8867-773e-ff54-3434f6067efb",
        "role": {
          "_entityName": "sec$Role",
          "id": "a3a4323b-e0cf-d73e-9488-ba421af28341"
        },
        "type": "SCREEN",
        "version": 1,
        "value": 0,
        "target": "treasury_CrossAccountHolidays.browse"
      },
      {
        "_entityName": "sec$Permission",
        "id": "58cbc4b7-63c2-8e4f-289e-e5b1590e20cf",
        "role": {
          "_entityName": "sec$Role",
          "id": "a3a4323b-e0cf-d73e-9488-ba421af28341"
        },
        "type": "UI",
        "version": 1,
        "value": 0,
        "target": "treasury_Transaction.edit:checkerDiscription"
      },
      {
        "_entityName": "sec$Permission",
        "id": "3c55697e-13ad-750a-5b6e-27557f33bca4",
        "role": {
          "_entityName": "sec$Role",
          "id": "a3a4323b-e0cf-d73e-9488-ba421af28341"
        },
        "type": "SCREEN",
        "version": 1,
        "value": 0,
        "target": "treasury_Remittance"
      },
      {
        "_entityName": "sec$Permission",
        "id": "6c46b5f8-1ff1-bf65-ef3a-be96ff24ca8e",
        "role": {
          "_entityName": "sec$Role",
          "id": "a3a4323b-e0cf-d73e-9488-ba421af28341"
        },
        "type": "UI",
        "version": 1,
        "value": 0,
        "target": "treasury_Transaction.edit:transactionSheet[checkerTap]"
      },
      {
        "_entityName": "sec$Permission",
        "id": "87ed7936-eddb-939f-ce4e-3ef92c7096f6",
        "role": {
          "_entityName": "sec$Role",
          "id": "a3a4323b-e0cf-d73e-9488-ba421af28341"
        },
        "type": "ENTITY_OP",
        "version": 1,
        "value": 1,
        "target": "*:create"
      },
      {
        "_entityName": "sec$Permission",
        "id": "91fdad93-4e6a-60e3-7b81-dc4815991442",
        "role": {
          "_entityName": "sec$Role",
          "id": "a3a4323b-e0cf-d73e-9488-ba421af28341"
        },
        "type": "ENTITY_OP",
        "version": 1,
        "value": 1,
        "target": "*:read"
      },
      {
        "_entityName": "sec$Permission",
        "id": "44bd091c-b65b-75db-eba3-7daf099429cc",
        "role": {
          "_entityName": "sec$Role",
          "id": "a3a4323b-e0cf-d73e-9488-ba421af28341"
        },
        "type": "SCREEN",
        "version": 1,
        "value": 0,
        "target": "treasury_BalancesList.browse"
      },
      {
        "_entityName": "sec$Permission",
        "id": "9c0719a1-c829-f479-7e89-61646faaccc4",
        "role": {
          "_entityName": "sec$Role",
          "id": "a3a4323b-e0cf-d73e-9488-ba421af28341"
        },
        "type": "UI",
        "version": 1,
        "value": 0,
        "target": "treasury_Transaction.browse:RETURNEDValidatebtn"
      },
      {
        "_entityName": "sec$Permission",
        "id": "ccf04c61-264e-5ddc-353c-ed8d0cb2e8f6",
        "role": {
          "_entityName": "sec$Role",
          "id": "a3a4323b-e0cf-d73e-9488-ba421af28341"
        },
        "type": "SCREEN",
        "version": 1,
        "value": 0,
        "target": "treasury_CrossAccount.browse"
      },
      {
        "_entityName": "sec$Permission",
        "id": "cc6e40e0-51ba-7be4-ed9d-5f88f0b3c24e",
        "role": {
          "_entityName": "sec$Role",
          "id": "a3a4323b-e0cf-d73e-9488-ba421af28341"
        },
        "type": "SCREEN",
        "version": 1,
        "value": 0,
        "target": "administration"
      },
      {
        "_entityName": "sec$Permission",
        "id": "6d55f6e2-c3bc-d17c-be64-1ef42f6b5133",
        "role": {
          "_entityName": "sec$Role",
          "id": "a3a4323b-e0cf-d73e-9488-ba421af28341"
        },
        "type": "UI",
        "version": 1,
        "value": 0,
        "target": "treasury_Balance.edit:BalanceSheet[checkerTap]"
      },
      {
        "_entityName": "sec$Permission",
        "id": "8dbcd554-ea38-620a-07ae-9beedbfe281b",
        "role": {
          "_entityName": "sec$Role",
          "id": "a3a4323b-e0cf-d73e-9488-ba421af28341"
        },
        "type": "ENTITY_OP",
        "version": 1,
        "value": 1,
        "target": "*:delete"
      }
    ],
    "name": "maker"
  },
  {
    "_entityName": "sec$Role",
    "id": "3876d7f0-62ce-8ca8-32a3-a4c4ff547c48",
    "securityScope": "GENERIC_UI",
    "defaultRole": false,
    "locName": "CHECKER",
    "type": "STANDARD",
    "version": 2,
    "locSecurityScope": "Generic UI",
    "permissions": [
      {
        "_entityName": "sec$Permission",
        "id": "4f3aa4c5-c94f-3a92-e160-99397bcbe5f7",
        "role": {
          "_entityName": "sec$Role",
          "id": "3876d7f0-62ce-8ca8-32a3-a4c4ff547c48"
        },
        "type": "SCREEN",
        "version": 1,
        "value": 0,
        "target": "treasury_BalancesList.browse"
      },
      {
        "_entityName": "sec$Permission",
        "id": "6502ba4b-de22-34b3-28e4-2cd2c8f40752",
        "role": {
          "_entityName": "sec$Role",
          "id": "3876d7f0-62ce-8ca8-32a3-a4c4ff547c48"
        },
        "type": "SCREEN",
        "version": 1,
        "value": 0,
        "target": "treasury_Balance.browse"
      },
      {
        "_entityName": "sec$Permission",
        "id": "7db45bea-9cf6-7f2d-e39f-4048b9be3d24",
        "role": {
          "_entityName": "sec$Role",
          "id": "3876d7f0-62ce-8ca8-32a3-a4c4ff547c48"
        },
        "type": "UI",
        "version": 1,
        "value": 0,
        "target": "treasury_Transaction.browse:createBtn"
      },
      {
        "_entityName": "sec$Permission",
        "id": "8b370d96-d618-ddaf-7fcb-b90654815dd3",
        "role": {
          "_entityName": "sec$Role",
          "id": "3876d7f0-62ce-8ca8-32a3-a4c4ff547c48"
        },
        "type": "UI",
        "version": 1,
        "value": 0,
        "target": "treasury_Balance.browse:removeBtn"
      },
      {
        "_entityName": "sec$Permission",
        "id": "23d1ce71-e469-dfa4-8155-dc55e98e66af",
        "role": {
          "_entityName": "sec$Role",
          "id": "3876d7f0-62ce-8ca8-32a3-a4c4ff547c48"
        },
        "type": "SCREEN",
        "version": 1,
        "value": 0,
        "target": "treasury_TreasuryCtrl.browse"
      },
      {
        "_entityName": "sec$Permission",
        "id": "d8186c23-f3a6-a1de-339a-28e998a52f99",
        "role": {
          "_entityName": "sec$Role",
          "id": "3876d7f0-62ce-8ca8-32a3-a4c4ff547c48"
        },
        "type": "SCREEN",
        "version": 1,
        "value": 0,
        "target": "treasury_CrossAccountHolidays.browse"
      },
      {
        "_entityName": "sec$Permission",
        "id": "9e08dc62-8cd3-c173-52a8-dc27d5ed6de5",
        "role": {
          "_entityName": "sec$Role",
          "id": "3876d7f0-62ce-8ca8-32a3-a4c4ff547c48"
        },
        "type": "UI",
        "version": 1,
        "value": 0,
        "target": "treasury_Balance.edit:BalanceSheet[makerTap]"
      },
      {
        "_entityName": "sec$Permission",
        "id": "366758e3-d875-850d-214c-41ed383985f5",
        "role": {
          "_entityName": "sec$Role",
          "id": "3876d7f0-62ce-8ca8-32a3-a4c4ff547c48"
        },
        "type": "ENTITY_OP",
        "version": 1,
        "value": 1,
        "target": "*:create"
      },
      {
        "_entityName": "sec$Permission",
        "id": "02047ad2-4047-d5f2-94d6-9b9c3090d9ab",
        "role": {
          "_entityName": "sec$Role",
          "id": "3876d7f0-62ce-8ca8-32a3-a4c4ff547c48"
        },
        "type": "ENTITY_OP",
        "version": 1,
        "value": 1,
        "target": "*:update"
      },
      {
        "_entityName": "sec$Permission",
        "id": "478dc6bd-14e4-75b1-7c73-6a199f0adb17",
        "role": {
          "_entityName": "sec$Role",
          "id": "3876d7f0-62ce-8ca8-32a3-a4c4ff547c48"
        },
        "type": "SCREEN",
        "version": 1,
        "value": 0,
        "target": "treasury_CrossAccount.browse"
      },
      {
        "_entityName": "sec$Permission",
        "id": "4a28a908-da9c-4803-9fdf-62871d4b433f",
        "role": {
          "_entityName": "sec$Role",
          "id": "3876d7f0-62ce-8ca8-32a3-a4c4ff547c48"
        },
        "type": "SCREEN",
        "version": 1,
        "value": 0,
        "target": "treasury_TreasuryFrontOffice.browse"
      },
      {
        "_entityName": "sec$Permission",
        "id": "b22dadd6-5642-ccb0-28dd-18c64c3da27c",
        "role": {
          "_entityName": "sec$Role",
          "id": "3876d7f0-62ce-8ca8-32a3-a4c4ff547c48"
        },
        "type": "UI",
        "version": 1,
        "value": 0,
        "target": "treasury_Transaction.edit:makerDiscription"
      },
      {
        "_entityName": "sec$Permission",
        "id": "7b61f627-3bb7-f4d8-235e-fbe73384ec8f",
        "role": {
          "_entityName": "sec$Role",
          "id": "3876d7f0-62ce-8ca8-32a3-a4c4ff547c48"
        },
        "type": "SCREEN",
        "version": 1,
        "value": 1,
        "target": "*"
      },
      {
        "_entityName": "sec$Permission",
        "id": "b1d2a0d3-f818-47f7-f317-295a829972a1",
        "role": {
          "_entityName": "sec$Role",
          "id": "3876d7f0-62ce-8ca8-32a3-a4c4ff547c48"
        },
        "type": "SCREEN",
        "version": 1,
        "value": 0,
        "target": "treasury_Currency.browse"
      },
      {
        "_entityName": "sec$Permission",
        "id": "c3421432-eb56-be57-dbf2-97d2477c1cf6",
        "role": {
          "_entityName": "sec$Role",
          "id": "3876d7f0-62ce-8ca8-32a3-a4c4ff547c48"
        },
        "type": "UI",
        "version": 1,
        "value": 0,
        "target": "treasury_Transaction.edit:checkerDiscription"
      },
      {
        "_entityName": "sec$Permission",
        "id": "0a919d11-1560-bea4-cd67-16f8313e61f9",
        "role": {
          "_entityName": "sec$Role",
          "id": "3876d7f0-62ce-8ca8-32a3-a4c4ff547c48"
        },
        "type": "UI",
        "version": 1,
        "value": 0,
        "target": "treasury_Transaction.edit:transactionSheet[makerTap]"
      },
      {
        "_entityName": "sec$Permission",
        "id": "4ef8a6eb-032f-cdcf-a82c-1101eb076ef9",
        "role": {
          "_entityName": "sec$Role",
          "id": "3876d7f0-62ce-8ca8-32a3-a4c4ff547c48"
        },
        "type": "ENTITY_ATTR",
        "version": 1,
        "value": 2,
        "target": "*:*"
      },
      {
        "_entityName": "sec$Permission",
        "id": "e2509773-96ea-10e5-9e48-3b6f713e43d2",
        "role": {
          "_entityName": "sec$Role",
          "id": "3876d7f0-62ce-8ca8-32a3-a4c4ff547c48"
        },
        "type": "SPECIFIC",
        "version": 1,
        "value": 1,
        "target": "*"
      },
      {
        "_entityName": "sec$Permission",
        "id": "f668c6d4-b9ff-4381-29a2-db6fc4d0f3f4",
        "role": {
          "_entityName": "sec$Role",
          "id": "3876d7f0-62ce-8ca8-32a3-a4c4ff547c48"
        },
        "type": "SCREEN",
        "version": 1,
        "value": 0,
        "target": "treasury_TransactionsTransfered.browse"
      },
      {
        "_entityName": "sec$Permission",
        "id": "018c3ec4-d12d-4924-8580-5986eb50da7b",
        "role": {
          "_entityName": "sec$Role",
          "id": "3876d7f0-62ce-8ca8-32a3-a4c4ff547c48"
        },
        "type": "UI",
        "version": 1,
        "value": 0,
        "target": "treasury_Transaction.browse:removeBtn"
      },
      {
        "_entityName": "sec$Permission",
        "id": "32e8aad9-d1d2-b3cc-427e-90813ba38bdd",
        "role": {
          "_entityName": "sec$Role",
          "id": "3876d7f0-62ce-8ca8-32a3-a4c4ff547c48"
        },
        "type": "ENTITY_OP",
        "version": 1,
        "value": 1,
        "target": "*:delete"
      },
      {
        "_entityName": "sec$Permission",
        "id": "6c43c571-932a-9040-186a-9d03ea08e489",
        "role": {
          "_entityName": "sec$Role",
          "id": "3876d7f0-62ce-8ca8-32a3-a4c4ff547c48"
        },
        "type": "SCREEN",
        "version": 1,
        "value": 0,
        "target": "administration"
      },
      {
        "_entityName": "sec$Permission",
        "id": "7e4cfd67-c400-8b3e-12d2-6491c0145632",
        "role": {
          "_entityName": "sec$Role",
          "id": "3876d7f0-62ce-8ca8-32a3-a4c4ff547c48"
        },
        "type": "SCREEN",
        "version": 1,
        "value": 0,
        "target": "treasury_ClosedCrossAccount.browse"
      },
      {
        "_entityName": "sec$Permission",
        "id": "df70522e-3306-1286-2ed6-da0fa83ac9ce",
        "role": {
          "_entityName": "sec$Role",
          "id": "3876d7f0-62ce-8ca8-32a3-a4c4ff547c48"
        },
        "type": "UI",
        "version": 1,
        "value": 0,
        "target": "treasury_Balance.browse:createBtn"
      },
      {
        "_entityName": "sec$Permission",
        "id": "c74ae227-452e-dc86-dc83-e9abea19d9cc",
        "role": {
          "_entityName": "sec$Role",
          "id": "3876d7f0-62ce-8ca8-32a3-a4c4ff547c48"
        },
        "type": "ENTITY_OP",
        "version": 1,
        "value": 1,
        "target": "*:read"
      },
      {
        "_entityName": "sec$Permission",
        "id": "3834d4a8-ae26-d79d-7f50-a92c2a374cd7",
        "role": {
          "_entityName": "sec$Role",
          "id": "3876d7f0-62ce-8ca8-32a3-a4c4ff547c48"
        },
        "type": "SCREEN",
        "version": 1,
        "value": 0,
        "target": "help"
      },
      {
        "_entityName": "sec$Permission",
        "id": "e62fbbaa-47f1-0f07-21e2-7b4e2d6ce04c",
        "role": {
          "_entityName": "sec$Role",
          "id": "3876d7f0-62ce-8ca8-32a3-a4c4ff547c48"
        },
        "type": "UI",
        "version": 1,
        "value": 0,
        "target": "treasury_Transaction.browse:SUBMITTEDbtn"
      }
    ],
    "name": "checker"
  },
  {
    "_entityName": "sec$Role",
    "id": "6acb8967-a37a-2568-ab98-e9c2f06ca4da",
    "defaultRole": false,
    "locName": "Reconciliation-Role-Checker",
    "type": "STANDARD",
    "version": 2,
    "permissions": [
      {
        "_entityName": "sec$Permission",
        "id": "aaff0b6f-c2e0-a239-970c-65d7e1e15431",
        "role": {
          "_entityName": "sec$Role",
          "id": "6acb8967-a37a-2568-ab98-e9c2f06ca4da"
        },
        "type": "SPECIFIC",
        "version": 1,
        "value": 1,
        "target": "*"
      },
      {
        "_entityName": "sec$Permission",
        "id": "cafee153-e8e7-2de8-bf13-334743535fa6",
        "role": {
          "_entityName": "sec$Role",
          "id": "6acb8967-a37a-2568-ab98-e9c2f06ca4da"
        },
        "type": "SCREEN",
        "version": 1,
        "value": 1,
        "target": "*"
      },
      {
        "_entityName": "sec$Permission",
        "id": "dc87d94f-79a9-1ba2-c40c-cf747a1daee1",
        "role": {
          "_entityName": "sec$Role",
          "id": "6acb8967-a37a-2568-ab98-e9c2f06ca4da"
        },
        "type": "SCREEN",
        "version": 1,
        "value": 0,
        "target": "administration"
      },
      {
        "_entityName": "sec$Permission",
        "id": "48d96d8c-a18c-7e16-d25c-732c857c1649",
        "role": {
          "_entityName": "sec$Role",
          "id": "6acb8967-a37a-2568-ab98-e9c2f06ca4da"
        },
        "type": "ENTITY_ATTR",
        "version": 1,
        "value": 2,
        "target": "*:*"
      },
      {
        "_entityName": "sec$Permission",
        "id": "5d45d443-589a-94eb-8a4a-32dfb2dc9e30",
        "role": {
          "_entityName": "sec$Role",
          "id": "6acb8967-a37a-2568-ab98-e9c2f06ca4da"
        },
        "type": "ENTITY_OP",
        "version": 1,
        "value": 1,
        "target": "*:delete"
      },
      {
        "_entityName": "sec$Permission",
        "id": "b7e78473-9cf9-01bf-fa09-04a1f2a2bb16",
        "role": {
          "_entityName": "sec$Role",
          "id": "6acb8967-a37a-2568-ab98-e9c2f06ca4da"
        },
        "type": "SCREEN",
        "version": 1,
        "value": 0,
        "target": "treasury_TransactionsTransfered.browse"
      },
      {
        "_entityName": "sec$Permission",
        "id": "2b46cdb9-5a8e-991b-7203-cc99670c28ad",
        "role": {
          "_entityName": "sec$Role",
          "id": "6acb8967-a37a-2568-ab98-e9c2f06ca4da"
        },
        "type": "ENTITY_OP",
        "version": 1,
        "value": 1,
        "target": "*:update"
      },
      {
        "_entityName": "sec$Permission",
        "id": "11b64a1e-7913-b12f-5ef5-d2c9dadf2966",
        "role": {
          "_entityName": "sec$Role",
          "id": "6acb8967-a37a-2568-ab98-e9c2f06ca4da"
        },
        "type": "UI",
        "version": 1,
        "value": 0,
        "target": "treasury_Balance.edit:BalanceSheet[makerTap]"
      },
      {
        "_entityName": "sec$Permission",
        "id": "fe652ee9-702d-d0a9-3ae7-eba7d3ea33f7",
        "role": {
          "_entityName": "sec$Role",
          "id": "6acb8967-a37a-2568-ab98-e9c2f06ca4da"
        },
        "type": "SCREEN",
        "version": 1,
        "value": 0,
        "target": "help"
      },
      {
        "_entityName": "sec$Permission",
        "id": "480c344d-49e4-dd2e-0eee-985d7c7dbf12",
        "role": {
          "_entityName": "sec$Role",
          "id": "6acb8967-a37a-2568-ab98-e9c2f06ca4da"
        },
        "type": "SCREEN",
        "version": 1,
        "value": 0,
        "target": "treasury_TreasuryFrontOffice.browse"
      },
      {
        "_entityName": "sec$Permission",
        "id": "3e746295-ebbb-a28e-7cd8-0aed2133cd8e",
        "role": {
          "_entityName": "sec$Role",
          "id": "6acb8967-a37a-2568-ab98-e9c2f06ca4da"
        },
        "type": "UI",
        "version": 1,
        "value": 0,
        "target": "treasury_Balance.browse:removeBtn"
      },
      {
        "_entityName": "sec$Permission",
        "id": "6bf1081b-3590-9731-c168-ae701f0e3d81",
        "role": {
          "_entityName": "sec$Role",
          "id": "6acb8967-a37a-2568-ab98-e9c2f06ca4da"
        },
        "type": "SCREEN",
        "version": 1,
        "value": 0,
        "target": "treasury_Currency.browse"
      },
      {
        "_entityName": "sec$Permission",
        "id": "eaf09f1e-7719-5be4-d3b7-2c883af06001",
        "role": {
          "_entityName": "sec$Role",
          "id": "6acb8967-a37a-2568-ab98-e9c2f06ca4da"
        },
        "type": "ENTITY_OP",
        "version": 1,
        "value": 1,
        "target": "*:create"
      },
      {
        "_entityName": "sec$Permission",
        "id": "d0d7c4a0-4e87-a8df-406b-9187aab953a7",
        "role": {
          "_entityName": "sec$Role",
          "id": "6acb8967-a37a-2568-ab98-e9c2f06ca4da"
        },
        "type": "SCREEN",
        "version": 1,
        "value": 0,
        "target": "treasury_Remittance"
      },
      {
        "_entityName": "sec$Permission",
        "id": "8afc69fe-cca9-a191-c84f-c2776fe5fcb9",
        "role": {
          "_entityName": "sec$Role",
          "id": "6acb8967-a37a-2568-ab98-e9c2f06ca4da"
        },
        "type": "UI",
        "version": 1,
        "value": 0,
        "target": "treasury_Balance.browse:SUBMITTEDbtn"
      },
      {
        "_entityName": "sec$Permission",
        "id": "5c48f495-1c7f-5be4-69a2-89a444898116",
        "role": {
          "_entityName": "sec$Role",
          "id": "6acb8967-a37a-2568-ab98-e9c2f06ca4da"
        },
        "type": "SCREEN",
        "version": 1,
        "value": 0,
        "target": "treasury_Transaction.browse"
      },
      {
        "_entityName": "sec$Permission",
        "id": "c49afe9f-f9c0-f87b-e91c-1c12e5a64f3e",
        "role": {
          "_entityName": "sec$Role",
          "id": "6acb8967-a37a-2568-ab98-e9c2f06ca4da"
        },
        "type": "UI",
        "version": 1,
        "value": 0,
        "target": "treasury_Balance.browse:createBtn"
      },
      {
        "_entityName": "sec$Permission",
        "id": "1c98a1dd-2ca8-a665-fc63-96812ecee38c",
        "role": {
          "_entityName": "sec$Role",
          "id": "6acb8967-a37a-2568-ab98-e9c2f06ca4da"
        },
        "type": "SCREEN",
        "version": 1,
        "value": 0,
        "target": "treasury_CrossAccount.browse"
      },
      {
        "_entityName": "sec$Permission",
        "id": "a7a4a24d-c8a2-50ef-7697-104d1bce465d",
        "role": {
          "_entityName": "sec$Role",
          "id": "6acb8967-a37a-2568-ab98-e9c2f06ca4da"
        },
        "type": "SCREEN",
        "version": 1,
        "value": 0,
        "target": "treasury_ClosedCrossAccount.browse"
      },
      {
        "_entityName": "sec$Permission",
        "id": "21ca361b-a913-9594-eca8-c048f030fcb7",
        "role": {
          "_entityName": "sec$Role",
          "id": "6acb8967-a37a-2568-ab98-e9c2f06ca4da"
        },
        "type": "ENTITY_OP",
        "version": 1,
        "value": 1,
        "target": "*:read"
      },
      {
        "_entityName": "sec$Permission",
        "id": "41094184-8998-5014-e18f-fc44828c0874",
        "role": {
          "_entityName": "sec$Role",
          "id": "6acb8967-a37a-2568-ab98-e9c2f06ca4da"
        },
        "type": "UI",
        "version": 1,
        "value": 0,
        "target": "treasury_Transaction.edit:transactionSheet[makerTap]"
      },
      {
        "_entityName": "sec$Permission",
        "id": "dce63b6e-52ad-d885-356c-a363b4c2369f",
        "role": {
          "_entityName": "sec$Role",
          "id": "6acb8967-a37a-2568-ab98-e9c2f06ca4da"
        },
        "type": "UI",
        "version": 1,
        "value": 0,
        "target": "treasury_Transaction.browse:createBtn"
      },
      {
        "_entityName": "sec$Permission",
        "id": "21718a5f-47f7-e246-5dda-5c9f4cafd646",
        "role": {
          "_entityName": "sec$Role",
          "id": "6acb8967-a37a-2568-ab98-e9c2f06ca4da"
        },
        "type": "SCREEN",
        "version": 1,
        "value": 0,
        "target": "treasury_TreasuryCtrl.browse"
      },
      {
        "_entityName": "sec$Permission",
        "id": "8100718b-54af-553d-d765-0ca85cb4e65c",
        "role": {
          "_entityName": "sec$Role",
          "id": "6acb8967-a37a-2568-ab98-e9c2f06ca4da"
        },
        "type": "UI",
        "version": 1,
        "value": 0,
        "target": "treasury_Transaction.browse:removeBtn"
      },
      {
        "_entityName": "sec$Permission",
        "id": "67a5ef9e-0d0c-f05a-96be-736b47f0c6b5",
        "role": {
          "_entityName": "sec$Role",
          "id": "6acb8967-a37a-2568-ab98-e9c2f06ca4da"
        },
        "type": "SCREEN",
        "version": 1,
        "value": 0,
        "target": "treasury_CrossAccountHolidays.browse"
      }
    ],
    "name": "Reconciliation-Role-Checker"
  },
  {
    "_entityName": "sec$Role",
    "id": "94eb0a7f-a3e1-473a-5be3-1d6cf0955fc0",
    "defaultRole": false,
    "locName": "CONTROL",
    "type": "STANDARD",
    "version": 2,
    "permissions": [
      {
        "_entityName": "sec$Permission",
        "id": "87dd4f98-a8ff-92d2-a632-46167c2d9da2",
        "role": {
          "_entityName": "sec$Role",
          "id": "94eb0a7f-a3e1-473a-5be3-1d6cf0955fc0"
        },
        "type": "SCREEN",
        "version": 1,
        "value": 1,
        "target": "treasury_ClosedCrossAccount.browse"
      },
      {
        "_entityName": "sec$Permission",
        "id": "cbc0d904-89ad-57f5-42e5-64c643eef594",
        "role": {
          "_entityName": "sec$Role",
          "id": "94eb0a7f-a3e1-473a-5be3-1d6cf0955fc0"
        },
        "type": "ENTITY_ATTR",
        "version": 1,
        "value": 2,
        "target": "*:*"
      },
      {
        "_entityName": "sec$Permission",
        "id": "94054676-1eff-90c8-d17d-06c8c7f75f00",
        "role": {
          "_entityName": "sec$Role",
          "id": "94eb0a7f-a3e1-473a-5be3-1d6cf0955fc0"
        },
        "type": "UI",
        "version": 1,
        "value": 0,
        "target": "treasury_Transaction.browse:removeBtn"
      },
      {
        "_entityName": "sec$Permission",
        "id": "148e1678-f7b2-2e6f-4295-9ad9280f09ee",
        "role": {
          "_entityName": "sec$Role",
          "id": "94eb0a7f-a3e1-473a-5be3-1d6cf0955fc0"
        },
        "type": "UI",
        "version": 1,
        "value": 0,
        "target": "treasury_Balance.browse:VALIDATEDbtn"
      },
      {
        "_entityName": "sec$Permission",
        "id": "d74f7979-bfe7-e456-42d1-b314a12910ac",
        "role": {
          "_entityName": "sec$Role",
          "id": "94eb0a7f-a3e1-473a-5be3-1d6cf0955fc0"
        },
        "type": "ENTITY_OP",
        "version": 1,
        "value": 1,
        "target": "*:create"
      },
      {
        "_entityName": "sec$Permission",
        "id": "31905dc4-7e1d-74ed-9fb9-e70f7e0cbe19",
        "role": {
          "_entityName": "sec$Role",
          "id": "94eb0a7f-a3e1-473a-5be3-1d6cf0955fc0"
        },
        "type": "UI",
        "version": 1,
        "value": 0,
        "target": "treasury_CrossAccount.browse:createBtn"
      },
      {
        "_entityName": "sec$Permission",
        "id": "6ca8b9cb-3e47-fd60-93bc-7e28d5310968",
        "role": {
          "_entityName": "sec$Role",
          "id": "94eb0a7f-a3e1-473a-5be3-1d6cf0955fc0"
        },
        "type": "SCREEN",
        "version": 1,
        "value": 1,
        "target": "treasury_ClosedCrossAccount.edit"
      },
      {
        "_entityName": "sec$Permission",
        "id": "e43d433a-cf28-7620-99c5-8fcb5414b5dc",
        "role": {
          "_entityName": "sec$Role",
          "id": "94eb0a7f-a3e1-473a-5be3-1d6cf0955fc0"
        },
        "type": "UI",
        "version": 1,
        "value": 0,
        "target": "treasury_Transaction.browse:SUBMITTEDbtn"
      },
      {
        "_entityName": "sec$Permission",
        "id": "25019f04-7d08-9c03-111e-0db8be308553",
        "role": {
          "_entityName": "sec$Role",
          "id": "94eb0a7f-a3e1-473a-5be3-1d6cf0955fc0"
        },
        "type": "SCREEN",
        "version": 1,
        "value": 1,
        "target": "*"
      },
      {
        "_entityName": "sec$Permission",
        "id": "34dedfa6-a236-62fc-fe2a-0d88ee97904c",
        "role": {
          "_entityName": "sec$Role",
          "id": "94eb0a7f-a3e1-473a-5be3-1d6cf0955fc0"
        },
        "type": "ENTITY_OP",
        "version": 1,
        "value": 1,
        "target": "*:read"
      },
      {
        "_entityName": "sec$Permission",
        "id": "a5902791-a816-fa6c-2d4d-4636c1654269",
        "role": {
          "_entityName": "sec$Role",
          "id": "94eb0a7f-a3e1-473a-5be3-1d6cf0955fc0"
        },
        "type": "UI",
        "version": 1,
        "value": 0,
        "target": "treasury_Transaction.browse:VALIDATEDbtn"
      },
      {
        "_entityName": "sec$Permission",
        "id": "7a163739-d563-1a1e-6109-453f8736319c",
        "role": {
          "_entityName": "sec$Role",
          "id": "94eb0a7f-a3e1-473a-5be3-1d6cf0955fc0"
        },
        "type": "UI",
        "version": 1,
        "value": 0,
        "target": "treasury_Transaction.browse:transactionTapSheet[ValidatedTab]"
      },
      {
        "_entityName": "sec$Permission",
        "id": "bb0b1e49-4dd0-2c85-a04e-e9561afb58a6",
        "role": {
          "_entityName": "sec$Role",
          "id": "94eb0a7f-a3e1-473a-5be3-1d6cf0955fc0"
        },
        "type": "SCREEN",
        "version": 1,
        "value": 0,
        "target": "treasury_Currency.browse"
      },
      {
        "_entityName": "sec$Permission",
        "id": "3ce9ae6b-85a0-6c19-27b9-e787aa17c480",
        "role": {
          "_entityName": "sec$Role",
          "id": "94eb0a7f-a3e1-473a-5be3-1d6cf0955fc0"
        },
        "type": "SCREEN",
        "version": 1,
        "value": 0,
        "target": "treasury_CrossAccountHolidays.browse"
      },
      {
        "_entityName": "sec$Permission",
        "id": "2d736b04-3447-ae87-e176-61589a61322f",
        "role": {
          "_entityName": "sec$Role",
          "id": "94eb0a7f-a3e1-473a-5be3-1d6cf0955fc0"
        },
        "type": "UI",
        "version": 1,
        "value": 0,
        "target": "treasury_Balance.browse:BalanceTapSheet[PendingTap]"
      },
      {
        "_entityName": "sec$Permission",
        "id": "0c287557-0703-c4ae-9165-5b7992c4ae51",
        "role": {
          "_entityName": "sec$Role",
          "id": "94eb0a7f-a3e1-473a-5be3-1d6cf0955fc0"
        },
        "type": "SCREEN",
        "version": 1,
        "value": 0,
        "target": "help"
      },
      {
        "_entityName": "sec$Permission",
        "id": "772abe59-f2e9-49d0-1150-4a7dbb889574",
        "role": {
          "_entityName": "sec$Role",
          "id": "94eb0a7f-a3e1-473a-5be3-1d6cf0955fc0"
        },
        "type": "SCREEN",
        "version": 1,
        "value": 1,
        "target": "treasury_CrossAccount.browse"
      },
      {
        "_entityName": "sec$Permission",
        "id": "9f5fbcc9-1b32-1e97-6169-d8735be20097",
        "role": {
          "_entityName": "sec$Role",
          "id": "94eb0a7f-a3e1-473a-5be3-1d6cf0955fc0"
        },
        "type": "UI",
        "version": 1,
        "value": 0,
        "target": "treasury_Balance.edit:BalanceSheet[makerTap]"
      },
      {
        "_entityName": "sec$Permission",
        "id": "651e0b43-9db9-9ea1-522b-23a5b7559543",
        "role": {
          "_entityName": "sec$Role",
          "id": "94eb0a7f-a3e1-473a-5be3-1d6cf0955fc0"
        },
        "type": "UI",
        "version": 1,
        "value": 0,
        "target": "treasury_Remittance:Validatebtn"
      },
      {
        "_entityName": "sec$Permission",
        "id": "210e10e3-1c69-5f1c-78af-8127ad939b65",
        "role": {
          "_entityName": "sec$Role",
          "id": "94eb0a7f-a3e1-473a-5be3-1d6cf0955fc0"
        },
        "type": "SPECIFIC",
        "version": 1,
        "value": 1,
        "target": "*"
      },
      {
        "_entityName": "sec$Permission",
        "id": "ba21fb42-466e-b5e6-e7ff-6090228c2e6e",
        "role": {
          "_entityName": "sec$Role",
          "id": "94eb0a7f-a3e1-473a-5be3-1d6cf0955fc0"
        },
        "type": "UI",
        "version": 1,
        "value": 0,
        "target": "treasury_CrossAccount.browse:editBtn"
      },
      {
        "_entityName": "sec$Permission",
        "id": "55875ba5-2de8-fb0d-80da-7e8c57a87bd3",
        "role": {
          "_entityName": "sec$Role",
          "id": "94eb0a7f-a3e1-473a-5be3-1d6cf0955fc0"
        },
        "type": "ENTITY_OP",
        "version": 1,
        "value": 1,
        "target": "*:delete"
      },
      {
        "_entityName": "sec$Permission",
        "id": "cf57a9e2-396a-40f0-1d62-30e677957854",
        "role": {
          "_entityName": "sec$Role",
          "id": "94eb0a7f-a3e1-473a-5be3-1d6cf0955fc0"
        },
        "type": "UI",
        "version": 1,
        "value": 0,
        "target": "treasury_CrossAccount.browse:removeBtn"
      },
      {
        "_entityName": "sec$Permission",
        "id": "6afa48f3-e99b-4730-7464-d64d0522fec5",
        "role": {
          "_entityName": "sec$Role",
          "id": "94eb0a7f-a3e1-473a-5be3-1d6cf0955fc0"
        },
        "type": "UI",
        "version": 1,
        "value": 0,
        "target": "treasury_Balance.browse:SUBMITTEDbtn"
      },
      {
        "_entityName": "sec$Permission",
        "id": "ffdb53c7-ef4c-ab3c-4fad-56c0caacbc83",
        "role": {
          "_entityName": "sec$Role",
          "id": "94eb0a7f-a3e1-473a-5be3-1d6cf0955fc0"
        },
        "type": "SCREEN",
        "version": 1,
        "value": 0,
        "target": "treasury_TreasuryFrontOffice.browse"
      },
      {
        "_entityName": "sec$Permission",
        "id": "8f3c5528-754d-d76f-f644-6fd86e7fba69",
        "role": {
          "_entityName": "sec$Role",
          "id": "94eb0a7f-a3e1-473a-5be3-1d6cf0955fc0"
        },
        "type": "SCREEN",
        "version": 2,
        "value": 1,
        "target": "treasury_Balance.browse"
      },
      {
        "_entityName": "sec$Permission",
        "id": "ddf7bd31-024c-b1c0-5911-7b2ae5264a6a",
        "role": {
          "_entityName": "sec$Role",
          "id": "94eb0a7f-a3e1-473a-5be3-1d6cf0955fc0"
        },
        "type": "ENTITY_OP",
        "version": 1,
        "value": 1,
        "target": "*:update"
      },
      {
        "_entityName": "sec$Permission",
        "id": "408ded37-c615-c2fe-67b6-fed4efd9d654",
        "role": {
          "_entityName": "sec$Role",
          "id": "94eb0a7f-a3e1-473a-5be3-1d6cf0955fc0"
        },
        "type": "SCREEN",
        "version": 2,
        "value": 1,
        "target": "treasury_Remittance"
      },
      {
        "_entityName": "sec$Permission",
        "id": "8f7be94d-214d-d91e-2838-3dffb77a9a67",
        "role": {
          "_entityName": "sec$Role",
          "id": "94eb0a7f-a3e1-473a-5be3-1d6cf0955fc0"
        },
        "type": "SCREEN",
        "version": 1,
        "value": 0,
        "target": "administration"
      },
      {
        "_entityName": "sec$Permission",
        "id": "b76f0c8e-deea-21dd-f074-f2b0ea1c69b1",
        "role": {
          "_entityName": "sec$Role",
          "id": "94eb0a7f-a3e1-473a-5be3-1d6cf0955fc0"
        },
        "type": "UI",
        "version": 1,
        "value": 1,
        "target": "treasury_Balance.edit:checkerStatus"
      }
    ],
    "name": "control"
  },
  {
    "_entityName": "sec$Role",
    "id": "59158867-ac19-29f0-1f35-93a12ba6bffc",
    "defaultRole": false,
    "locName": "FRONT-OFFICE",
    "type": "STANDARD",
    "version": 1,
    "permissions": [
      {
        "_entityName": "sec$Permission",
        "id": "9aeed7d8-ffea-565e-2655-ba4d3cd38509",
        "role": {
          "_entityName": "sec$Role",
          "id": "59158867-ac19-29f0-1f35-93a12ba6bffc"
        },
        "type": "SCREEN",
        "version": 1,
        "value": 1,
        "target": "treasury_Balance.browse"
      },
      {
        "_entityName": "sec$Permission",
        "id": "ce2eea66-ca21-ddba-a5a8-7d0f5ea0cc54",
        "role": {
          "_entityName": "sec$Role",
          "id": "59158867-ac19-29f0-1f35-93a12ba6bffc"
        },
        "type": "SCREEN",
        "version": 1,
        "value": 0,
        "target": "treasury_TreasuryCtrl.browse"
      },
      {
        "_entityName": "sec$Permission",
        "id": "ec226e6b-9129-dde6-5fd3-b1bbac5b96f4",
        "role": {
          "_entityName": "sec$Role",
          "id": "59158867-ac19-29f0-1f35-93a12ba6bffc"
        },
        "type": "UI",
        "version": 1,
        "value": 0,
        "target": "treasury_Transaction.browse:removeBtn"
      },
      {
        "_entityName": "sec$Permission",
        "id": "21a7cc3e-4183-4f9c-5220-046f9ddab212",
        "role": {
          "_entityName": "sec$Role",
          "id": "59158867-ac19-29f0-1f35-93a12ba6bffc"
        },
        "type": "UI",
        "version": 1,
        "value": 1,
        "target": "treasury_Balance.edit:checkerStatus"
      },
      {
        "_entityName": "sec$Permission",
        "id": "73871487-8f5f-4006-9d88-3c4f005d6687",
        "role": {
          "_entityName": "sec$Role",
          "id": "59158867-ac19-29f0-1f35-93a12ba6bffc"
        },
        "type": "SCREEN",
        "version": 1,
        "value": 0,
        "target": "treasury_Currency.browse"
      },
      {
        "_entityName": "sec$Permission",
        "id": "dce70082-d034-3e36-78de-e72fed011edb",
        "role": {
          "_entityName": "sec$Role",
          "id": "59158867-ac19-29f0-1f35-93a12ba6bffc"
        },
        "type": "UI",
        "version": 1,
        "value": 0,
        "target": "treasury_Balance.browse:controleditBtn"
      },
      {
        "_entityName": "sec$Permission",
        "id": "2cffd756-0911-c272-ef50-0c85ea45028f",
        "role": {
          "_entityName": "sec$Role",
          "id": "59158867-ac19-29f0-1f35-93a12ba6bffc"
        },
        "type": "UI",
        "version": 1,
        "value": 0,
        "target": "treasury_Transaction.browse:createBtn"
      },
      {
        "_entityName": "sec$Permission",
        "id": "fc5f0fa4-8892-0b29-090d-aea8e2075475",
        "role": {
          "_entityName": "sec$Role",
          "id": "59158867-ac19-29f0-1f35-93a12ba6bffc"
        },
        "type": "ENTITY_OP",
        "version": 1,
        "value": 1,
        "target": "*:create"
      },
      {
        "_entityName": "sec$Permission",
        "id": "c3a0c041-ecbc-f229-d167-033fafad2496",
        "role": {
          "_entityName": "sec$Role",
          "id": "59158867-ac19-29f0-1f35-93a12ba6bffc"
        },
        "type": "SCREEN",
        "version": 1,
        "value": 1,
        "target": "treasury_TreasuryFrontOffice.browse"
      },
      {
        "_entityName": "sec$Permission",
        "id": "e5f73299-1f9f-8210-6358-56287cce1e83",
        "role": {
          "_entityName": "sec$Role",
          "id": "59158867-ac19-29f0-1f35-93a12ba6bffc"
        },
        "type": "ENTITY_OP",
        "version": 1,
        "value": 1,
        "target": "*:read"
      },
      {
        "_entityName": "sec$Permission",
        "id": "af5a533d-d77e-8590-1c84-d8a3aa080838",
        "role": {
          "_entityName": "sec$Role",
          "id": "59158867-ac19-29f0-1f35-93a12ba6bffc"
        },
        "type": "SCREEN",
        "version": 1,
        "value": 0,
        "target": "treasury_CrossAccount.browse"
      },
      {
        "_entityName": "sec$Permission",
        "id": "f62337e0-5730-7bdd-cc32-a8e37e4db1ad",
        "role": {
          "_entityName": "sec$Role",
          "id": "59158867-ac19-29f0-1f35-93a12ba6bffc"
        },
        "type": "SCREEN",
        "version": 1,
        "value": 0,
        "target": "help"
      },
      {
        "_entityName": "sec$Permission",
        "id": "1a67a8fd-a4ed-aa9a-b1f4-75529bfc1bd1",
        "role": {
          "_entityName": "sec$Role",
          "id": "59158867-ac19-29f0-1f35-93a12ba6bffc"
        },
        "type": "SCREEN",
        "version": 1,
        "value": 0,
        "target": "treasury_Remittance"
      },
      {
        "_entityName": "sec$Permission",
        "id": "58e2905c-c6a1-628f-139c-e543649c5774",
        "role": {
          "_entityName": "sec$Role",
          "id": "59158867-ac19-29f0-1f35-93a12ba6bffc"
        },
        "type": "SCREEN",
        "version": 1,
        "value": 0,
        "target": "treasury_CrossAccountHolidays.browse"
      },
      {
        "_entityName": "sec$Permission",
        "id": "fb72605f-9bf6-92b5-5a5d-74fdb664b84d",
        "role": {
          "_entityName": "sec$Role",
          "id": "59158867-ac19-29f0-1f35-93a12ba6bffc"
        },
        "type": "ENTITY_OP",
        "version": 1,
        "value": 1,
        "target": "*:delete"
      },
      {
        "_entityName": "sec$Permission",
        "id": "75cc8e10-87a7-eea5-f85a-90bd63127942",
        "role": {
          "_entityName": "sec$Role",
          "id": "59158867-ac19-29f0-1f35-93a12ba6bffc"
        },
        "type": "SPECIFIC",
        "version": 1,
        "value": 1,
        "target": "*"
      },
      {
        "_entityName": "sec$Permission",
        "id": "19a7fc90-998a-3491-5fa2-c4194967169c",
        "role": {
          "_entityName": "sec$Role",
          "id": "59158867-ac19-29f0-1f35-93a12ba6bffc"
        },
        "type": "UI",
        "version": 1,
        "value": 0,
        "target": "treasury_Transaction.browse:transactionTapSheet[ValidatedTab]"
      },
      {
        "_entityName": "sec$Permission",
        "id": "ce8bc38e-7976-9324-50d9-5ef124c50217",
        "role": {
          "_entityName": "sec$Role",
          "id": "59158867-ac19-29f0-1f35-93a12ba6bffc"
        },
        "type": "SCREEN",
        "version": 1,
        "value": 0,
        "target": "administration"
      },
      {
        "_entityName": "sec$Permission",
        "id": "143155ef-5567-e7d7-38ab-b91774c80675",
        "role": {
          "_entityName": "sec$Role",
          "id": "59158867-ac19-29f0-1f35-93a12ba6bffc"
        },
        "type": "ENTITY_ATTR",
        "version": 1,
        "value": 2,
        "target": "*:*"
      },
      {
        "_entityName": "sec$Permission",
        "id": "db51a50f-0843-f0cd-446d-fbd18746fbd8",
        "role": {
          "_entityName": "sec$Role",
          "id": "59158867-ac19-29f0-1f35-93a12ba6bffc"
        },
        "type": "ENTITY_OP",
        "version": 1,
        "value": 1,
        "target": "*:update"
      },
      {
        "_entityName": "sec$Permission",
        "id": "0818b5c5-7d00-eb5a-5168-bb02ef36cba1",
        "role": {
          "_entityName": "sec$Role",
          "id": "59158867-ac19-29f0-1f35-93a12ba6bffc"
        },
        "type": "UI",
        "version": 1,
        "value": 0,
        "target": "treasury_Transaction.edit:transactionSheet[makerTap]"
      },
      {
        "_entityName": "sec$Permission",
        "id": "8adadfa6-c3a4-3cf2-4ce4-6a924901dca0",
        "role": {
          "_entityName": "sec$Role",
          "id": "59158867-ac19-29f0-1f35-93a12ba6bffc"
        },
        "type": "UI",
        "version": 1,
        "value": 0,
        "target": "treasury_Balance.browse:RETURNEDValidatebtn"
      },
      {
        "_entityName": "sec$Permission",
        "id": "0eb6567e-545c-c962-85e2-a766bc627d6e",
        "role": {
          "_entityName": "sec$Role",
          "id": "59158867-ac19-29f0-1f35-93a12ba6bffc"
        },
        "type": "SCREEN",
        "version": 1,
        "value": 1,
        "target": "*"
      },
      {
        "_entityName": "sec$Permission",
        "id": "1e8b0c0c-d804-334e-d323-b7f562642101",
        "role": {
          "_entityName": "sec$Role",
          "id": "59158867-ac19-29f0-1f35-93a12ba6bffc"
        },
        "type": "UI",
        "version": 1,
        "value": 0,
        "target": "treasury_Balance.browse:BalanceTapSheet[PendingTap]"
      },
      {
        "_entityName": "sec$Permission",
        "id": "a51bd4f0-d951-9c05-81a1-a09d1d140328",
        "role": {
          "_entityName": "sec$Role",
          "id": "59158867-ac19-29f0-1f35-93a12ba6bffc"
        },
        "type": "UI",
        "version": 1,
        "value": 0,
        "target": "treasury_Balance.edit:BalanceSheet[makerTap]"
      }
    ],
    "name": "front-office"
  },
  {
    "_entityName": "sec$Role",
    "id": "1e441c4e-dd2f-c740-8c12-010c0703c839",
    "securityScope": "GENERIC_UI",
    "type": "STANDARD",
    "version": 1,
    "locSecurityScope": "Generic UI",
    "permissions": [
      {
        "_entityName": "sec$Permission",
        "id": "bafaff5a-eac0-f5ce-f8ee-1aa506779626",
        "role": {
          "_entityName": "sec$Role",
          "id": "1e441c4e-dd2f-c740-8c12-010c0703c839"
        },
        "type": "UI",
        "version": 1,
        "value": 0,
        "target": "treasury_Transaction.edit:checkerCreditField"
      },
      {
        "_entityName": "sec$Permission",
        "id": "49e6d79e-7f6c-e5aa-8792-4759ccae6d14",
        "role": {
          "_entityName": "sec$Role",
          "id": "1e441c4e-dd2f-c740-8c12-010c0703c839"
        },
        "type": "UI",
        "version": 1,
        "value": 0,
        "target": "treasury_Transaction.edit:creditField"
      }
    ],
    "name": "outgoing"
  },
  {
    "_entityName": "sec$Role",
    "id": "3fb3fb25-f9f0-88de-faa8-dd4f38fc99b0",
    "securityScope": "GENERIC_UI",
    "type": "STANDARD",
    "version": 1,
    "locSecurityScope": "Generic UI",
    "permissions": [
      {
        "_entityName": "sec$Permission",
        "id": "f8cab589-301e-cd4d-ce73-003a4199aeb6",
        "role": {
          "_entityName": "sec$Role",
          "id": "3fb3fb25-f9f0-88de-faa8-dd4f38fc99b0"
        },
        "type": "UI",
        "version": 1,
        "value": 0,
        "target": "treasury_Transaction.edit:deptField"
      }
    ],
    "name": "incoming"
  },
  {
    "_entityName": "sec$Role",
    "id": "430f64b8-7e98-ecae-06f0-ba5fdce3f306",
    "defaultRole": false,
    "locName": "control-checker",
    "type": "STANDARD",
    "version": 2,
    "permissions": [
      {
        "_entityName": "sec$Permission",
        "id": "c24f922b-0fca-f404-594c-55eefc4279ca",
        "role": {
          "_entityName": "sec$Role",
          "id": "430f64b8-7e98-ecae-06f0-ba5fdce3f306"
        },
        "type": "SCREEN",
        "version": 1,
        "value": 1,
        "target": "treasury_Remittance"
      },
      {
        "_entityName": "sec$Permission",
        "id": "9425a08c-ea3f-2737-cfca-49335384f29e",
        "role": {
          "_entityName": "sec$Role",
          "id": "430f64b8-7e98-ecae-06f0-ba5fdce3f306"
        },
        "type": "SCREEN",
        "version": 1,
        "value": 0,
        "target": "treasury_TreasuryFrontOffice.browse"
      },
      {
        "_entityName": "sec$Permission",
        "id": "bc19bdcb-b8c1-4f8c-ea7d-105ab3faf686",
        "role": {
          "_entityName": "sec$Role",
          "id": "430f64b8-7e98-ecae-06f0-ba5fdce3f306"
        },
        "type": "UI",
        "version": 1,
        "value": 0,
        "target": "treasury_CrossAccount.browse:editBtn"
      },
      {
        "_entityName": "sec$Permission",
        "id": "aebb8750-a761-b9b0-2f5e-597fc99b5185",
        "role": {
          "_entityName": "sec$Role",
          "id": "430f64b8-7e98-ecae-06f0-ba5fdce3f306"
        },
        "type": "ENTITY_OP",
        "version": 1,
        "value": 1,
        "target": "*:update"
      },
      {
        "_entityName": "sec$Permission",
        "id": "a646b309-eadb-05c3-411e-5c11736a1134",
        "role": {
          "_entityName": "sec$Role",
          "id": "430f64b8-7e98-ecae-06f0-ba5fdce3f306"
        },
        "type": "UI",
        "version": 1,
        "value": 0,
        "target": "treasury_CrossAccount.browse:removeBtn"
      },
      {
        "_entityName": "sec$Permission",
        "id": "89543fb9-9ac9-5475-d4df-e2df9359780e",
        "role": {
          "_entityName": "sec$Role",
          "id": "430f64b8-7e98-ecae-06f0-ba5fdce3f306"
        },
        "type": "ENTITY_ATTR",
        "version": 1,
        "value": 2,
        "target": "*:*"
      },
      {
        "_entityName": "sec$Permission",
        "id": "59b33638-27a4-6a56-3938-d168452e204c",
        "role": {
          "_entityName": "sec$Role",
          "id": "430f64b8-7e98-ecae-06f0-ba5fdce3f306"
        },
        "type": "SCREEN",
        "version": 1,
        "value": 1,
        "target": "treasury_CrossAccount.browse"
      },
      {
        "_entityName": "sec$Permission",
        "id": "0b622701-ca59-08a7-c8d8-130c0555e7d7",
        "role": {
          "_entityName": "sec$Role",
          "id": "430f64b8-7e98-ecae-06f0-ba5fdce3f306"
        },
        "type": "UI",
        "version": 1,
        "value": 0,
        "target": "treasury_Transaction.browse:removeBtn"
      },
      {
        "_entityName": "sec$Permission",
        "id": "5535d8e9-e1bb-91f6-a1a0-91ec23c48c55",
        "role": {
          "_entityName": "sec$Role",
          "id": "430f64b8-7e98-ecae-06f0-ba5fdce3f306"
        },
        "type": "SCREEN",
        "version": 1,
        "value": 1,
        "target": "*"
      },
      {
        "_entityName": "sec$Permission",
        "id": "f2b641f5-1194-3450-1e09-63157ab3a9a6",
        "role": {
          "_entityName": "sec$Role",
          "id": "430f64b8-7e98-ecae-06f0-ba5fdce3f306"
        },
        "type": "UI",
        "version": 1,
        "value": 0,
        "target": "treasury_Balance.browse:VALIDATEDbtn"
      },
      {
        "_entityName": "sec$Permission",
        "id": "594e8ec3-f618-b23a-0942-d678b64f14d5",
        "role": {
          "_entityName": "sec$Role",
          "id": "430f64b8-7e98-ecae-06f0-ba5fdce3f306"
        },
        "type": "SCREEN",
        "version": 1,
        "value": 1,
        "target": "treasury_ClosedCrossAccount.browse"
      },
      {
        "_entityName": "sec$Permission",
        "id": "8dc39912-f993-c6fa-3dc0-553f13c9569a",
        "role": {
          "_entityName": "sec$Role",
          "id": "430f64b8-7e98-ecae-06f0-ba5fdce3f306"
        },
        "type": "ENTITY_OP",
        "version": 1,
        "value": 1,
        "target": "*:delete"
      },
      {
        "_entityName": "sec$Permission",
        "id": "26feda32-11ed-000e-79d1-f13b43738b61",
        "role": {
          "_entityName": "sec$Role",
          "id": "430f64b8-7e98-ecae-06f0-ba5fdce3f306"
        },
        "type": "ENTITY_OP",
        "version": 1,
        "value": 1,
        "target": "*:create"
      },
      {
        "_entityName": "sec$Permission",
        "id": "817cdce5-4b1e-a589-9ec3-38e3a67ace0d",
        "role": {
          "_entityName": "sec$Role",
          "id": "430f64b8-7e98-ecae-06f0-ba5fdce3f306"
        },
        "type": "SCREEN",
        "version": 1,
        "value": 0,
        "target": "treasury_Currency.browse"
      },
      {
        "_entityName": "sec$Permission",
        "id": "0fb340d0-93a7-8aab-0057-7e17684012f6",
        "role": {
          "_entityName": "sec$Role",
          "id": "430f64b8-7e98-ecae-06f0-ba5fdce3f306"
        },
        "type": "UI",
        "version": 1,
        "value": 0,
        "target": "treasury_Balance.edit:BalanceSheet[makerTap]"
      },
      {
        "_entityName": "sec$Permission",
        "id": "ff315bfd-9e11-f784-f131-e26562c56c53",
        "role": {
          "_entityName": "sec$Role",
          "id": "430f64b8-7e98-ecae-06f0-ba5fdce3f306"
        },
        "type": "SCREEN",
        "version": 1,
        "value": 1,
        "target": "treasury_ClosedCrossAccount.edit"
      },
      {
        "_entityName": "sec$Permission",
        "id": "51bfeb42-5f3d-d770-83cc-a1c5a60e5f6c",
        "role": {
          "_entityName": "sec$Role",
          "id": "430f64b8-7e98-ecae-06f0-ba5fdce3f306"
        },
        "type": "UI",
        "version": 1,
        "value": 0,
        "target": "treasury_Transaction.browse:SUBMITTEDbtn"
      },
      {
        "_entityName": "sec$Permission",
        "id": "b3087d23-7aad-c206-39be-a0767ec53ed0",
        "role": {
          "_entityName": "sec$Role",
          "id": "430f64b8-7e98-ecae-06f0-ba5fdce3f306"
        },
        "type": "UI",
        "version": 1,
        "value": 0,
        "target": "treasury_Transaction.browse:createBtn"
      },
      {
        "_entityName": "sec$Permission",
        "id": "b7fe6cbb-5b9d-80d1-8dd8-f0bcfb4259f1",
        "role": {
          "_entityName": "sec$Role",
          "id": "430f64b8-7e98-ecae-06f0-ba5fdce3f306"
        },
        "type": "UI",
        "version": 1,
        "value": 0,
        "target": "treasury_TransactionsTransfered.browse:createBtn"
      },
      {
        "_entityName": "sec$Permission",
        "id": "346d3421-e67d-83ed-b2ae-97acfdd58eab",
        "role": {
          "_entityName": "sec$Role",
          "id": "430f64b8-7e98-ecae-06f0-ba5fdce3f306"
        },
        "type": "UI",
        "version": 1,
        "value": 0,
        "target": "treasury_Transaction.browse:transactionTapSheet[ValidatedTab]"
      },
      {
        "_entityName": "sec$Permission",
        "id": "27fb545f-a44c-16f2-6fc2-68bcc546af42",
        "role": {
          "_entityName": "sec$Role",
          "id": "430f64b8-7e98-ecae-06f0-ba5fdce3f306"
        },
        "type": "SCREEN",
        "version": 1,
        "value": 0,
        "target": "administration"
      },
      {
        "_entityName": "sec$Permission",
        "id": "1383cd5d-0902-fcf0-0e8d-7b5fd430adef",
        "role": {
          "_entityName": "sec$Role",
          "id": "430f64b8-7e98-ecae-06f0-ba5fdce3f306"
        },
        "type": "SCREEN",
        "version": 1,
        "value": 0,
        "target": "treasury_CrossAccountHolidays.browse"
      },
      {
        "_entityName": "sec$Permission",
        "id": "e6ff7464-2e88-1ef0-a553-216f1d7e8cc5",
        "role": {
          "_entityName": "sec$Role",
          "id": "430f64b8-7e98-ecae-06f0-ba5fdce3f306"
        },
        "type": "UI",
        "version": 1,
        "value": 0,
        "target": "treasury_Transaction.edit:transactionSheet[makerTap]"
      },
      {
        "_entityName": "sec$Permission",
        "id": "bd955842-5680-f988-cf8c-ec4b3f55f968",
        "role": {
          "_entityName": "sec$Role",
          "id": "430f64b8-7e98-ecae-06f0-ba5fdce3f306"
        },
        "type": "UI",
        "version": 1,
        "value": 0,
        "target": "treasury_Balance.browse:SUBMITTEDbtn"
      },
      {
        "_entityName": "sec$Permission",
        "id": "df44ae11-19bc-b418-54e4-ee95a1c91723",
        "role": {
          "_entityName": "sec$Role",
          "id": "430f64b8-7e98-ecae-06f0-ba5fdce3f306"
        },
        "type": "SCREEN",
        "version": 1,
        "value": 0,
        "target": "help"
      },
      {
        "_entityName": "sec$Permission",
        "id": "14352fe7-4aea-9dd9-c340-df6ae21bea3b",
        "role": {
          "_entityName": "sec$Role",
          "id": "430f64b8-7e98-ecae-06f0-ba5fdce3f306"
        },
        "type": "UI",
        "version": 1,
        "value": 1,
        "target": "treasury_Balance.edit:checkerStatus"
      },
      {
        "_entityName": "sec$Permission",
        "id": "06ab893f-b4ed-82cd-3aec-42a052166383",
        "role": {
          "_entityName": "sec$Role",
          "id": "430f64b8-7e98-ecae-06f0-ba5fdce3f306"
        },
        "type": "SCREEN",
        "version": 1,
        "value": 1,
        "target": "treasury_Balance.browse"
      },
      {
        "_entityName": "sec$Permission",
        "id": "2f1ff747-8a5e-b337-0101-b6c6f9fa4c78",
        "role": {
          "_entityName": "sec$Role",
          "id": "430f64b8-7e98-ecae-06f0-ba5fdce3f306"
        },
        "type": "UI",
        "version": 1,
        "value": 0,
        "target": "treasury_Remittance:Validatebtn"
      },
      {
        "_entityName": "sec$Permission",
        "id": "9f4fd1e2-ca48-b40d-b22a-9046b36e599c",
        "role": {
          "_entityName": "sec$Role",
          "id": "430f64b8-7e98-ecae-06f0-ba5fdce3f306"
        },
        "type": "UI",
        "version": 1,
        "value": 0,
        "target": "treasury_Balance.browse:BalanceTapSheet[PendingTap]"
      },
      {
        "_entityName": "sec$Permission",
        "id": "2f2e6407-8290-e30b-1400-f4284d3e9653",
        "role": {
          "_entityName": "sec$Role",
          "id": "430f64b8-7e98-ecae-06f0-ba5fdce3f306"
        },
        "type": "ENTITY_OP",
        "version": 1,
        "value": 1,
        "target": "*:read"
      },
      {
        "_entityName": "sec$Permission",
        "id": "067e74a7-d403-4320-42e7-57b00f60be34",
        "role": {
          "_entityName": "sec$Role",
          "id": "430f64b8-7e98-ecae-06f0-ba5fdce3f306"
        },
        "type": "SPECIFIC",
        "version": 1,
        "value": 1,
        "target": "*"
      },
      {
        "_entityName": "sec$Permission",
        "id": "b24ae27e-dacc-5572-84a5-39995ba5cdac",
        "role": {
          "_entityName": "sec$Role",
          "id": "430f64b8-7e98-ecae-06f0-ba5fdce3f306"
        },
        "type": "UI",
        "version": 1,
        "value": 0,
        "target": "treasury_CrossAccount.browse:createBtn"
      }
    ],
    "name": "control-checker"
  },
  {
    "_entityName": "sec$Role",
    "id": "bc399b0f-eed3-7212-e8ef-9c275d41ee4f",
    "defaultRole": false,
    "locName": "control-maker",
    "type": "STANDARD",
    "version": 2,
    "permissions": [
      {
        "_entityName": "sec$Permission",
        "id": "0258db5c-bbac-dc8e-3c34-a0f363cbc46b",
        "role": {
          "_entityName": "sec$Role",
          "id": "bc399b0f-eed3-7212-e8ef-9c275d41ee4f"
        },
        "type": "ENTITY_ATTR",
        "version": 1,
        "value": 2,
        "target": "*:*"
      },
      {
        "_entityName": "sec$Permission",
        "id": "b352cde4-7a29-f05c-b754-49d01658bd1d",
        "role": {
          "_entityName": "sec$Role",
          "id": "bc399b0f-eed3-7212-e8ef-9c275d41ee4f"
        },
        "type": "UI",
        "version": 1,
        "value": 0,
        "target": "treasury_Transaction.browse:RETURNEDbtn"
      },
      {
        "_entityName": "sec$Permission",
        "id": "939750a9-ae27-0423-887c-f1a202f534d4",
        "role": {
          "_entityName": "sec$Role",
          "id": "bc399b0f-eed3-7212-e8ef-9c275d41ee4f"
        },
        "type": "SCREEN",
        "version": 1,
        "value": 0,
        "target": "administration"
      },
      {
        "_entityName": "sec$Permission",
        "id": "0f978d56-71a1-f7a7-6da1-b1763b0eaed9",
        "role": {
          "_entityName": "sec$Role",
          "id": "bc399b0f-eed3-7212-e8ef-9c275d41ee4f"
        },
        "type": "SCREEN",
        "version": 1,
        "value": 1,
        "target": "treasury_Remittance"
      },
      {
        "_entityName": "sec$Permission",
        "id": "661de80c-2d57-59e3-056f-6953c46ef6fd",
        "role": {
          "_entityName": "sec$Role",
          "id": "bc399b0f-eed3-7212-e8ef-9c275d41ee4f"
        },
        "type": "UI",
        "version": 1,
        "value": 0,
        "target": "treasury_CrossAccount.browse:removeBtn"
      },
      {
        "_entityName": "sec$Permission",
        "id": "1d1a1186-0a51-5a6e-22fc-6e5cf517f31f",
        "role": {
          "_entityName": "sec$Role",
          "id": "bc399b0f-eed3-7212-e8ef-9c275d41ee4f"
        },
        "type": "UI",
        "version": 1,
        "value": 0,
        "target": "treasury_Remittance:Validatebtn"
      },
      {
        "_entityName": "sec$Permission",
        "id": "21aade38-9820-cc8a-861c-b924931dec10",
        "role": {
          "_entityName": "sec$Role",
          "id": "bc399b0f-eed3-7212-e8ef-9c275d41ee4f"
        },
        "type": "UI",
        "version": 1,
        "value": 0,
        "target": "treasury_Transaction.browse:transactionTapSheet[ValidatedTab]"
      },
      {
        "_entityName": "sec$Permission",
        "id": "2edaeee1-040a-5def-e46b-b1d685f9f0ce",
        "role": {
          "_entityName": "sec$Role",
          "id": "bc399b0f-eed3-7212-e8ef-9c275d41ee4f"
        },
        "type": "UI",
        "version": 1,
        "value": 0,
        "target": "treasury_Balance.browse:BalanceTapSheet[PendingTap]"
      },
      {
        "_entityName": "sec$Permission",
        "id": "ca212ebe-d0d4-3998-f709-41635f62cf0e",
        "role": {
          "_entityName": "sec$Role",
          "id": "bc399b0f-eed3-7212-e8ef-9c275d41ee4f"
        },
        "type": "ENTITY_OP",
        "version": 1,
        "value": 1,
        "target": "*:read"
      },
      {
        "_entityName": "sec$Permission",
        "id": "a77b85a5-4a5f-7de2-ef0d-615a04c60568",
        "role": {
          "_entityName": "sec$Role",
          "id": "bc399b0f-eed3-7212-e8ef-9c275d41ee4f"
        },
        "type": "UI",
        "version": 1,
        "value": 0,
        "target": "treasury_Balance.browse:VALIDATEDbtn"
      },
      {
        "_entityName": "sec$Permission",
        "id": "79856b78-693b-7506-aebf-25f72bc87bdb",
        "role": {
          "_entityName": "sec$Role",
          "id": "bc399b0f-eed3-7212-e8ef-9c275d41ee4f"
        },
        "type": "SCREEN",
        "version": 1,
        "value": 0,
        "target": "treasury_Currency.browse"
      },
      {
        "_entityName": "sec$Permission",
        "id": "6f0782fb-62f2-bff3-e49a-b5abbfd4d004",
        "role": {
          "_entityName": "sec$Role",
          "id": "bc399b0f-eed3-7212-e8ef-9c275d41ee4f"
        },
        "type": "SCREEN",
        "version": 1,
        "value": 0,
        "target": "help"
      },
      {
        "_entityName": "sec$Permission",
        "id": "af9422ba-10c5-bbf6-c8bb-0fcbe4c997fa",
        "role": {
          "_entityName": "sec$Role",
          "id": "bc399b0f-eed3-7212-e8ef-9c275d41ee4f"
        },
        "type": "UI",
        "version": 1,
        "value": 0,
        "target": "treasury_Balance.browse:SUBMITTEDbtn"
      },
      {
        "_entityName": "sec$Permission",
        "id": "3965286e-b39a-66ff-a85e-bf885ef40d2c",
        "role": {
          "_entityName": "sec$Role",
          "id": "bc399b0f-eed3-7212-e8ef-9c275d41ee4f"
        },
        "type": "UI",
        "version": 1,
        "value": 0,
        "target": "treasury_CrossAccount.browse:editBtn"
      },
      {
        "_entityName": "sec$Permission",
        "id": "a696ef7b-1768-2508-6dad-d3a5b01a7dbe",
        "role": {
          "_entityName": "sec$Role",
          "id": "bc399b0f-eed3-7212-e8ef-9c275d41ee4f"
        },
        "type": "UI",
        "version": 1,
        "value": 0,
        "target": "treasury_CrossAccount.browse:createBtn"
      },
      {
        "_entityName": "sec$Permission",
        "id": "5c6b1871-f71f-974b-ff91-43ee7a933840",
        "role": {
          "_entityName": "sec$Role",
          "id": "bc399b0f-eed3-7212-e8ef-9c275d41ee4f"
        },
        "type": "ENTITY_OP",
        "version": 1,
        "value": 1,
        "target": "*:update"
      },
      {
        "_entityName": "sec$Permission",
        "id": "9373fac7-2ee2-534a-89d6-2942f46592c9",
        "role": {
          "_entityName": "sec$Role",
          "id": "bc399b0f-eed3-7212-e8ef-9c275d41ee4f"
        },
        "type": "SCREEN",
        "version": 1,
        "value": 1,
        "target": "treasury_ClosedCrossAccount.edit"
      },
      {
        "_entityName": "sec$Permission",
        "id": "ebb1a393-b66f-09f4-20be-157fad5c1483",
        "role": {
          "_entityName": "sec$Role",
          "id": "bc399b0f-eed3-7212-e8ef-9c275d41ee4f"
        },
        "type": "UI",
        "version": 1,
        "value": 0,
        "target": "treasury_Transaction.edit:transactionSheet[checkerTap]"
      },
      {
        "_entityName": "sec$Permission",
        "id": "73b48c0e-81c3-82c8-2fd9-5496c871aaa6",
        "role": {
          "_entityName": "sec$Role",
          "id": "bc399b0f-eed3-7212-e8ef-9c275d41ee4f"
        },
        "type": "SCREEN",
        "version": 1,
        "value": 1,
        "target": "treasury_ClosedCrossAccount.browse"
      },
      {
        "_entityName": "sec$Permission",
        "id": "349e80c5-8b42-9217-acfc-ba849c7300ef",
        "role": {
          "_entityName": "sec$Role",
          "id": "bc399b0f-eed3-7212-e8ef-9c275d41ee4f"
        },
        "type": "SCREEN",
        "version": 1,
        "value": 0,
        "target": "treasury_TreasuryFrontOffice.browse"
      },
      {
        "_entityName": "sec$Permission",
        "id": "52294039-13fa-36fd-ac33-9dea15514472",
        "role": {
          "_entityName": "sec$Role",
          "id": "bc399b0f-eed3-7212-e8ef-9c275d41ee4f"
        },
        "type": "SCREEN",
        "version": 1,
        "value": 1,
        "target": "treasury_CrossAccount.browse"
      },
      {
        "_entityName": "sec$Permission",
        "id": "0df3adcf-8912-3217-f421-7f4dbd4a98f2",
        "role": {
          "_entityName": "sec$Role",
          "id": "bc399b0f-eed3-7212-e8ef-9c275d41ee4f"
        },
        "type": "UI",
        "version": 1,
        "value": 0,
        "target": "treasury_Transaction.browse:removeBtn"
      },
      {
        "_entityName": "sec$Permission",
        "id": "407cf90c-ca90-970e-9c81-0af6b71c5ef5",
        "role": {
          "_entityName": "sec$Role",
          "id": "bc399b0f-eed3-7212-e8ef-9c275d41ee4f"
        },
        "type": "SCREEN",
        "version": 1,
        "value": 1,
        "target": "treasury_Balance.browse"
      },
      {
        "_entityName": "sec$Permission",
        "id": "88fdc5d6-baf8-8dc7-5dc2-c1662330e933",
        "role": {
          "_entityName": "sec$Role",
          "id": "bc399b0f-eed3-7212-e8ef-9c275d41ee4f"
        },
        "type": "SCREEN",
        "version": 1,
        "value": 1,
        "target": "*"
      },
      {
        "_entityName": "sec$Permission",
        "id": "33b72a8e-7f99-a7c9-11d4-8108e6cc12cc",
        "role": {
          "_entityName": "sec$Role",
          "id": "bc399b0f-eed3-7212-e8ef-9c275d41ee4f"
        },
        "type": "UI",
        "version": 1,
        "value": 0,
        "target": "treasury_Balance.edit:BalanceSheet[makerTap]"
      },
      {
        "_entityName": "sec$Permission",
        "id": "ed9e3715-d18a-3964-9464-72581dbcc31e",
        "role": {
          "_entityName": "sec$Role",
          "id": "bc399b0f-eed3-7212-e8ef-9c275d41ee4f"
        },
        "type": "UI",
        "version": 1,
        "value": 0,
        "target": "treasury_Transaction.browse:VALIDATEDbtn"
      },
      {
        "_entityName": "sec$Permission",
        "id": "819bcfd1-288a-593c-e96a-c7bf570d16d9",
        "role": {
          "_entityName": "sec$Role",
          "id": "bc399b0f-eed3-7212-e8ef-9c275d41ee4f"
        },
        "type": "UI",
        "version": 1,
        "value": 1,
        "target": "treasury_Balance.edit:checkerStatus"
      },
      {
        "_entityName": "sec$Permission",
        "id": "5ee07b55-47d9-a41b-672d-a8fd02ae06b7",
        "role": {
          "_entityName": "sec$Role",
          "id": "bc399b0f-eed3-7212-e8ef-9c275d41ee4f"
        },
        "type": "ENTITY_OP",
        "version": 1,
        "value": 1,
        "target": "*:delete"
      },
      {
        "_entityName": "sec$Permission",
        "id": "5346c623-7dfe-5167-4714-8ce25ee1a454",
        "role": {
          "_entityName": "sec$Role",
          "id": "bc399b0f-eed3-7212-e8ef-9c275d41ee4f"
        },
        "type": "ENTITY_OP",
        "version": 1,
        "value": 1,
        "target": "*:create"
      },
      {
        "_entityName": "sec$Permission",
        "id": "87253cf4-4e6b-03be-79e6-b1fac4c49123",
        "role": {
          "_entityName": "sec$Role",
          "id": "bc399b0f-eed3-7212-e8ef-9c275d41ee4f"
        },
        "type": "SPECIFIC",
        "version": 1,
        "value": 1,
        "target": "*"
      },
      {
        "_entityName": "sec$Permission",
        "id": "5d31d8e2-fc9b-537a-1acf-89821fbe317e",
        "role": {
          "_entityName": "sec$Role",
          "id": "bc399b0f-eed3-7212-e8ef-9c275d41ee4f"
        },
        "type": "SCREEN",
        "version": 1,
        "value": 0,
        "target": "treasury_CrossAccountHolidays.browse"
      }
    ],
    "name": "control-maker"
  }
]